Data 607 Tidyverse
…
stringr-The first great feature

A great part of stringr is the ability to find if there is a string inside of another string! A great example of this is:

raw$test <- str_detect(raw$brand, "Toyota")

The best thing about this is that you can iterate it across the scope of the data set, making is super easy to test and try other items. Here is the result:

print(as_tibble(raw))

## # A tibble: 244 x 12
##     year brand     superbowl_ads_d~ youtube_url funny show_product_qu~ patriotic
##    <int> <chr>     <chr>            <chr>       <chr> <chr>            <chr>    
##  1  2018 Toyota    https://superbo~ https://ww~ False False            False    
##  2  2020 Bud Light https://superbo~ https://ww~ True  True             False    
##  3  2006 Bud Light https://superbo~ https://ww~ True  False            False    
##  4  2018 Hynudai   https://superbo~ https://ww~ False True             False    
##  5  2003 Bud Light https://superbo~ https://ww~ True  True             False    
##  6  2020 Toyota    https://superbo~ https://ww~ True  True             False    
##  7  2020 Coca-Cola https://superbo~ https://ww~ True  False            False    
##  8  2020 Kia       https://superbo~ https://ww~ False False            False    
##  9  2020 Hynudai   https://superbo~ https://ww~ True  True             False    
## 10  2020 Budweiser https://superbo~ https://ww~ False True             True     
## # ... with 234 more rows, and 5 more variables: celebrity <chr>, danger <chr>,
## #   animals <chr>, use_sex <chr>, test <lgl>
…
